EESchema Schematic File Version 2
LIBS:power
LIBS:device
LIBS:transistors
LIBS:conn
LIBS:linear
LIBS:regul
LIBS:74xx
LIBS:cmos4000
LIBS:adc-dac
LIBS:memory
LIBS:xilinx
LIBS:microcontrollers
LIBS:dsp
LIBS:microchip
LIBS:analog_switches
LIBS:motorola
LIBS:texas
LIBS:intel
LIBS:audio
LIBS:interface
LIBS:digital-audio
LIBS:philips
LIBS:display
LIBS:cypress
LIBS:siliconi
LIBS:opto
LIBS:atmel
LIBS:contrib
LIBS:valves
LIBS:LineCounter-cache
EELAYER 25 0
EELAYER END
$Descr A4 11693 8268
encoding utf-8
Sheet 1 1
Title ""
Date ""
Rev ""
Comp ""
Comment1 ""
Comment2 ""
Comment3 ""
Comment4 ""
$EndDescr
$Comp
L D D1
U 1 1 567FB1A4
P 1650 5950
F 0 "D1" H 1650 6050 50  0000 C CNN
F 1 "3A" H 1650 5850 50  0000 C CNN
F 2 "Diodes_SMD:DO-214BA" H 1650 5950 50  0001 C CNN
F 3 "" H 1650 5950 50  0000 C CNN
	1    1650 5950
	-1   0    0    1   
$EndComp
$Comp
L AP1117 U1
U 1 1 567FB1FD
P 2300 5950
F 0 "U1" H 2400 5700 50  0000 C CNN
F 1 "AMS1117 3.3V" H 2300 6200 50  0000 C CNN
F 2 "TO_SOT_Packages_SMD:SOT-223" H 2300 5950 50  0001 C CNN
F 3 "" H 2300 5950 50  0000 C CNN
	1    2300 5950
	1    0    0    -1  
$EndComp
$Comp
L CP1 C1
U 1 1 567FB2A7
P 1900 6400
F 0 "C1" H 1925 6500 50  0000 L CNN
F 1 "100uF 25V" H 1650 6250 50  0000 L CNN
F 2 "Capacitors_ThroughHole:C_Radial_D5_L6_P2.5" H 1900 6400 50  0001 C CNN
F 3 "" H 1900 6400 50  0000 C CNN
	1    1900 6400
	1    0    0    -1  
$EndComp
$Comp
L CP1 C2
U 1 1 567FB344
P 2700 6400
F 0 "C2" H 2725 6500 50  0000 L CNN
F 1 "22uF 25V" H 2500 6250 50  0000 L CNN
F 2 "Capacitors_ThroughHole:C_Radial_D5_L11_P2" H 2700 6400 50  0001 C CNN
F 3 "" H 2700 6400 50  0000 C CNN
	1    2700 6400
	1    0    0    -1  
$EndComp
Text Label 2950 5800 0    60   ~ 0
+3.3V
$Comp
L R R1
U 1 1 567FBEC7
P 3050 6150
F 0 "R1" V 3130 6150 50  0000 C CNN
F 1 "220" V 3050 6150 50  0000 C CNN
F 2 "Resistors_SMD:R_0805_HandSoldering" V 2980 6150 50  0001 C CNN
F 3 "" H 3050 6150 50  0000 C CNN
	1    3050 6150
	1    0    0    -1  
$EndComp
$Comp
L CONN_01X03 P1
U 1 1 567FBE70
P 1050 6050
F 0 "P1" H 1050 6250 50  0000 C CNN
F 1 "5V DC" V 1150 6050 50  0000 C CNN
F 2 "Connect:JACK_ALIM" H 1050 6050 50  0001 C CNN
F 3 "" H 1050 6050 50  0000 C CNN
	1    1050 6050
	-1   0    0    -1  
$EndComp
NoConn ~ 1250 6150
$Comp
L CONN_02X04 M3
U 1 1 56765B79
P 4200 6450
F 0 "M3" H 4200 6700 50  0000 C CNN
F 1 "M3" H 4200 6200 50  0000 C CNN
F 2 "Connect:RJ45_8" H 4200 5250 50  0001 C CNN
F 3 "" H 4200 5250 50  0000 C CNN
	1    4200 6450
	0    -1   -1   0   
$EndComp
$Comp
L DIL14 U2
U 1 1 5689B5E1
P 4900 3250
F 0 "U2" V 4900 3650 50  0000 C CNN
F 1 "40106" V 4900 3250 50  0000 C CNN
F 2 "Housings_DIP:DIP-14_W7.62mm" H 4900 3250 50  0001 C CNN
F 3 "" H 4900 3250 50  0000 C CNN
	1    4900 3250
	0    -1   -1   0   
$EndComp
$Comp
L CONN_02X20 J1
U 1 1 56764AE3
P 5000 1500
F 0 "J1" H 5000 2550 50  0000 C CNN
F 1 "J1" V 5000 1500 50  0000 C CNN
F 2 "Socket_Strips:Socket_Strip_Straight_2x20" H 5000 550 50  0001 C CNN
F 3 "" H 5000 550 50  0000 C CNN
	1    5000 1500
	0    -1   -1   0   
$EndComp
$Comp
L CONN_02X04 M4
U 1 1 5689D827
P 5700 6450
F 0 "M4" H 5700 6700 50  0000 C CNN
F 1 "M4" H 5700 6200 50  0000 C CNN
F 2 "Connect:RJ45_8" H 5700 5250 50  0001 C CNN
F 3 "" H 5700 5250 50  0000 C CNN
	1    5700 6450
	0    -1   -1   0   
$EndComp
$Comp
L CONN_02X04 M1
U 1 1 56765BC1
P 2700 3350
F 0 "M1" H 2700 3600 50  0000 C CNN
F 1 "M1" H 2700 3100 50  0000 C CNN
F 2 "Connect:RJ45_8" H 2700 2150 50  0001 C CNN
F 3 "" H 2700 2150 50  0000 C CNN
	1    2700 3350
	1    0    0    -1  
$EndComp
$Comp
L CONN_02X04 M2
U 1 1 56765B32
P 2700 4650
F 0 "M2" H 2700 4900 50  0000 C CNN
F 1 "M2" H 2700 4400 50  0000 C CNN
F 2 "Connect:RJ45_8" H 2700 3450 50  0001 C CNN
F 3 "" H 2700 3450 50  0000 C CNN
	1    2700 4650
	1    0    0    -1  
$EndComp
$Comp
L DIL14 U3
U 1 1 5689B6EC
P 4900 5100
F 0 "U3" H 4900 5500 50  0000 C CNN
F 1 "40106" V 4900 5100 50  0000 C CNN
F 2 "Housings_DIP:DIP-14_W7.62mm" H 4900 5100 50  0001 C CNN
F 3 "" H 4900 5100 50  0000 C CNN
	1    4900 5100
	0    -1   -1   0   
$EndComp
$Comp
L LED D2
U 1 1 567FB5EB
P 3050 6600
F 0 "D2" H 3050 6700 50  0000 C CNN
F 1 "GREEN" H 3050 6500 50  0000 C CNN
F 2 "LEDs:LED_1206" H 3050 6600 50  0001 C CNN
F 3 "" H 3050 6600 50  0000 C CNN
	1    3050 6600
	0    -1   -1   0   
$EndComp
$Comp
L R R5
U 1 1 56BB523A
P 4700 2600
F 0 "R5" V 4780 2600 50  0000 C CNN
F 1 "10K" V 4700 2600 50  0000 C CNN
F 2 "Resistors_SMD:R_0805_HandSoldering" V 4630 2600 50  0001 C CNN
F 3 "" H 4700 2600 50  0000 C CNN
	1    4700 2600
	1    0    0    -1  
$EndComp
$Comp
L R R6
U 1 1 56BB52A4
P 4900 2600
F 0 "R6" V 4980 2600 50  0000 C CNN
F 1 "10K" V 4900 2600 50  0000 C CNN
F 2 "Resistors_SMD:R_0805_HandSoldering" V 4830 2600 50  0001 C CNN
F 3 "" H 4900 2600 50  0000 C CNN
	1    4900 2600
	1    0    0    -1  
$EndComp
$Comp
L R R7
U 1 1 56BB52F4
P 5100 2600
F 0 "R7" V 5180 2600 50  0000 C CNN
F 1 "10K" V 5100 2600 50  0000 C CNN
F 2 "Resistors_SMD:R_0805_HandSoldering" V 5030 2600 50  0001 C CNN
F 3 "" H 5100 2600 50  0000 C CNN
	1    5100 2600
	1    0    0    -1  
$EndComp
$Comp
L R R2
U 1 1 56BB5365
P 4600 3900
F 0 "R2" V 4680 3900 50  0000 C CNN
F 1 "10K" V 4600 3900 50  0000 C CNN
F 2 "Resistors_SMD:R_0805_HandSoldering" V 4530 3900 50  0001 C CNN
F 3 "" H 4600 3900 50  0000 C CNN
	1    4600 3900
	1    0    0    -1  
$EndComp
$Comp
L R R3
U 1 1 56BB53EB
P 4800 3900
F 0 "R3" V 4880 3900 50  0000 C CNN
F 1 "10K" V 4800 3900 50  0000 C CNN
F 2 "Resistors_SMD:R_0805_HandSoldering" V 4730 3900 50  0001 C CNN
F 3 "" H 4800 3900 50  0000 C CNN
	1    4800 3900
	1    0    0    -1  
$EndComp
$Comp
L R R4
U 1 1 56BB5444
P 5000 3900
F 0 "R4" V 5080 3900 50  0000 C CNN
F 1 "10K" V 5000 3900 50  0000 C CNN
F 2 "Resistors_SMD:R_0805_HandSoldering" V 4930 3900 50  0001 C CNN
F 3 "" H 5000 3900 50  0000 C CNN
	1    5000 3900
	1    0    0    -1  
$EndComp
$Comp
L R R11
U 1 1 56BB54B6
P 4700 4450
F 0 "R11" V 4780 4450 50  0000 C CNN
F 1 "10K" V 4700 4450 50  0000 C CNN
F 2 "Resistors_SMD:R_0805_HandSoldering" V 4630 4450 50  0001 C CNN
F 3 "" H 4700 4450 50  0000 C CNN
	1    4700 4450
	1    0    0    -1  
$EndComp
$Comp
L R R12
U 1 1 56BB5690
P 4900 4450
F 0 "R12" V 4980 4450 50  0000 C CNN
F 1 "10K" V 4900 4450 50  0000 C CNN
F 2 "Resistors_SMD:R_0805_HandSoldering" V 4830 4450 50  0001 C CNN
F 3 "" H 4900 4450 50  0000 C CNN
	1    4900 4450
	1    0    0    -1  
$EndComp
$Comp
L R R13
U 1 1 56BB56EE
P 5100 4450
F 0 "R13" V 5180 4450 50  0000 C CNN
F 1 "10K" V 5100 4450 50  0000 C CNN
F 2 "Resistors_SMD:R_0805_HandSoldering" V 5030 4450 50  0001 C CNN
F 3 "" H 5100 4450 50  0000 C CNN
	1    5100 4450
	1    0    0    -1  
$EndComp
$Comp
L R R8
U 1 1 56BB57D9
P 4600 5750
F 0 "R8" V 4680 5750 50  0000 C CNN
F 1 "10K" V 4600 5750 50  0000 C CNN
F 2 "Resistors_SMD:R_0805_HandSoldering" V 4530 5750 50  0001 C CNN
F 3 "" H 4600 5750 50  0000 C CNN
	1    4600 5750
	1    0    0    -1  
$EndComp
$Comp
L R R9
U 1 1 56BB586D
P 4800 5750
F 0 "R9" V 4880 5750 50  0000 C CNN
F 1 "10K" V 4800 5750 50  0000 C CNN
F 2 "Resistors_SMD:R_0805_HandSoldering" V 4730 5750 50  0001 C CNN
F 3 "" H 4800 5750 50  0000 C CNN
	1    4800 5750
	1    0    0    -1  
$EndComp
$Comp
L R R10
U 1 1 56BB58D0
P 5000 5750
F 0 "R10" V 5080 5750 50  0000 C CNN
F 1 "10K" V 5000 5750 50  0000 C CNN
F 2 "Resistors_SMD:R_0805_HandSoldering" V 4930 5750 50  0001 C CNN
F 3 "" H 5000 5750 50  0000 C CNN
	1    5000 5750
	1    0    0    -1  
$EndComp
Wire Wire Line
	1250 6050 1350 6050
Wire Wire Line
	1250 5950 1500 5950
Wire Wire Line
	2700 6250 2700 5950
Wire Wire Line
	3050 5950 3050 6000
Wire Wire Line
	3050 6300 3050 6400
Wire Wire Line
	1350 6050 1350 6900
Wire Wire Line
	4700 4600 4700 4750
Wire Wire Line
	4900 4600 4900 4750
Wire Wire Line
	5100 4600 5100 4750
Wire Wire Line
	4600 5600 4600 5450
Wire Wire Line
	4800 5600 4800 5450
Wire Wire Line
	5000 5600 5000 5450
Wire Wire Line
	4600 3600 4600 3750
Wire Wire Line
	4800 3600 4800 3750
Wire Wire Line
	5000 3600 5000 3750
Wire Wire Line
	4700 2750 4700 2900
Wire Wire Line
	4900 2750 4900 2900
Wire Wire Line
	5100 2750 5100 2900
Wire Wire Line
	4700 2850 3100 2850
Wire Wire Line
	3100 2850 3100 3400
Wire Wire Line
	3100 3400 2950 3400
Connection ~ 4700 2850
Wire Wire Line
	4900 2800 3050 2800
Wire Wire Line
	3050 2800 3050 3300
Wire Wire Line
	3050 3300 2950 3300
Connection ~ 4900 2800
Wire Wire Line
	5100 2750 2950 2750
Wire Wire Line
	2950 2750 2950 3200
Wire Wire Line
	5000 3700 3100 3700
Wire Wire Line
	3100 3700 3100 4700
Wire Wire Line
	3100 4700 2950 4700
Connection ~ 5000 3700
Wire Wire Line
	4800 3650 3050 3650
Wire Wire Line
	3050 3650 3050 4600
Wire Wire Line
	3050 4600 2950 4600
Connection ~ 4800 3650
Wire Wire Line
	4600 3600 3000 3600
Wire Wire Line
	3000 3600 3000 4500
Wire Wire Line
	3000 4500 2950 4500
Wire Wire Line
	5100 4600 5750 4600
Wire Wire Line
	5750 4600 5750 6200
Wire Wire Line
	4900 4650 5650 4650
Wire Wire Line
	5650 4650 5650 6200
Connection ~ 4900 4650
Wire Wire Line
	4700 4700 5550 4700
Wire Wire Line
	5550 4700 5550 6200
Connection ~ 4700 4700
Wire Wire Line
	4600 5600 4250 5600
Wire Wire Line
	4250 5600 4250 6200
Wire Wire Line
	4800 5550 4150 5550
Wire Wire Line
	4150 5550 4150 6200
Connection ~ 4800 5550
Wire Wire Line
	5000 5500 4050 5500
Wire Wire Line
	4050 5500 4050 6200
Connection ~ 5000 5500
Wire Wire Line
	4150 1750 4150 2350
Wire Wire Line
	4150 2350 4800 2350
Wire Wire Line
	4800 2350 4800 2900
Wire Wire Line
	4250 1750 4250 2300
Wire Wire Line
	4250 2300 5000 2300
Wire Wire Line
	5000 2300 5000 2900
Wire Wire Line
	4350 1750 4350 2250
Wire Wire Line
	4350 2250 5200 2250
Wire Wire Line
	5200 2250 5200 2900
Wire Wire Line
	4550 1750 4550 2200
Wire Wire Line
	4550 2200 5300 2200
Wire Wire Line
	5300 2200 5300 3700
Wire Wire Line
	5300 3700 5100 3700
Wire Wire Line
	5100 3700 5100 3600
Wire Wire Line
	4650 1750 4650 2150
Wire Wire Line
	4650 2150 5350 2150
Wire Wire Line
	5350 2150 5350 4100
Wire Wire Line
	5350 4100 4900 4100
Wire Wire Line
	4900 4100 4900 3600
Wire Wire Line
	4750 1750 4750 2100
Wire Wire Line
	4750 2100 5400 2100
Wire Wire Line
	5400 2100 5400 4150
Wire Wire Line
	5400 4150 4700 4150
Wire Wire Line
	4700 4150 4700 3600
Wire Wire Line
	4950 1750 4950 2050
Wire Wire Line
	4950 2050 5450 2050
Wire Wire Line
	5450 2050 5450 4200
Wire Wire Line
	5450 4200 4800 4200
Wire Wire Line
	4800 4200 4800 4750
Wire Wire Line
	5050 1750 5050 2000
Wire Wire Line
	5050 2000 5500 2000
Wire Wire Line
	5500 2000 5500 4250
Wire Wire Line
	5500 4250 5000 4250
Wire Wire Line
	5000 4250 5000 4750
Wire Wire Line
	5150 1750 5150 1950
Wire Wire Line
	5150 1950 5700 1950
Wire Wire Line
	5700 1950 5700 4750
Wire Wire Line
	5700 4750 5200 4750
Wire Wire Line
	5450 1750 5450 1900
Wire Wire Line
	5450 1900 6000 1900
Wire Wire Line
	6000 1900 6000 5500
Wire Wire Line
	6000 5500 5100 5500
Wire Wire Line
	5100 5500 5100 5450
Wire Wire Line
	5550 1750 5550 1850
Wire Wire Line
	5550 1850 6150 1850
Wire Wire Line
	6150 1850 6150 5550
Wire Wire Line
	6150 5550 4900 5550
Wire Wire Line
	4900 5550 4900 5450
Wire Wire Line
	5650 1750 5650 1800
Wire Wire Line
	5650 1800 6200 1800
Wire Wire Line
	6200 1800 6200 5600
Wire Wire Line
	6200 5600 4700 5600
Wire Wire Line
	4700 5600 4700 5450
Wire Wire Line
	2450 3300 2350 3300
Wire Wire Line
	2350 3300 2350 1150
Wire Wire Line
	2350 1150 4350 1150
Wire Wire Line
	4350 1150 4350 1250
Wire Wire Line
	2450 3400 2300 3400
Wire Wire Line
	2300 3400 2300 1100
Wire Wire Line
	2300 1100 4450 1100
Wire Wire Line
	4450 1100 4450 1250
Wire Wire Line
	2450 3500 2250 3500
Wire Wire Line
	2250 3500 2250 1050
Wire Wire Line
	2250 1050 4550 1050
Wire Wire Line
	4550 1050 4550 1250
Wire Wire Line
	2450 4600 2200 4600
Wire Wire Line
	2200 4600 2200 1000
Wire Wire Line
	2200 1000 4750 1000
Wire Wire Line
	4750 1000 4750 1250
Wire Wire Line
	2450 4700 2150 4700
Wire Wire Line
	2150 4700 2150 950 
Wire Wire Line
	2150 950  4850 950 
Wire Wire Line
	4850 950  4850 1250
Wire Wire Line
	2450 4800 2100 4800
Wire Wire Line
	2100 4800 2100 850 
Wire Wire Line
	2100 850  5050 850 
Wire Wire Line
	5050 850  5050 1250
Wire Wire Line
	5950 1250 6300 1250
Wire Wire Line
	6300 1250 6300 6750
Wire Wire Line
	6300 6750 5850 6750
Wire Wire Line
	5850 6750 5850 6700
Wire Wire Line
	5850 1250 5850 1200
Wire Wire Line
	5850 1200 6350 1200
Wire Wire Line
	6350 1200 6350 6800
Wire Wire Line
	6350 6800 5750 6800
Wire Wire Line
	5750 6800 5750 6700
Wire Wire Line
	5750 1250 5750 1150
Wire Wire Line
	5750 1150 6400 1150
Wire Wire Line
	6400 1150 6400 6850
Wire Wire Line
	6400 6850 5650 6850
Wire Wire Line
	5650 6850 5650 6700
Wire Wire Line
	5550 1250 5550 1100
Wire Wire Line
	5550 1100 6500 1100
Wire Wire Line
	6500 1100 6500 6900
Wire Wire Line
	6500 6900 4350 6900
Wire Wire Line
	4350 6900 4350 6700
Wire Wire Line
	5250 1250 5250 1050
Wire Wire Line
	5250 1050 6600 1050
Wire Wire Line
	6600 1050 6600 6950
Wire Wire Line
	6600 6950 4250 6950
Wire Wire Line
	4250 6950 4250 6700
Wire Wire Line
	5150 1250 5150 1000
Wire Wire Line
	5150 1000 6650 1000
Wire Wire Line
	6650 1000 6650 7000
Wire Wire Line
	6650 7000 4150 7000
Wire Wire Line
	4150 7000 4150 6700
Wire Wire Line
	1350 6900 3700 6900
Wire Wire Line
	1800 5950 2000 5950
Wire Wire Line
	2600 5950 5000 5950
Connection ~ 2700 5950
Connection ~ 3050 5950
Wire Wire Line
	1900 5850 1900 6250
Connection ~ 1900 5950
Wire Wire Line
	1900 6550 1900 6900
Connection ~ 1900 6900
Wire Wire Line
	2700 6550 2700 6900
Connection ~ 2700 6900
Wire Wire Line
	3500 2450 3500 6800
Wire Wire Line
	3500 6800 5550 6800
Wire Wire Line
	5550 6800 5550 6700
Wire Wire Line
	4050 6700 4050 6800
Connection ~ 4050 6800
Wire Wire Line
	3500 5000 2400 5000
Wire Wire Line
	2400 5000 2400 3200
Wire Wire Line
	2400 3200 2450 3200
Connection ~ 3500 5950
Wire Wire Line
	2450 4500 2400 4500
Connection ~ 2400 4500
Wire Wire Line
	5000 5950 5000 5900
Wire Wire Line
	4800 5900 4800 5950
Connection ~ 4800 5950
Wire Wire Line
	4600 5900 4600 5950
Connection ~ 4600 5950
Wire Wire Line
	3500 4300 5100 4300
Connection ~ 3500 5000
Connection ~ 4700 4300
Connection ~ 4900 4300
Wire Wire Line
	3500 4050 5000 4050
Connection ~ 3500 4300
Connection ~ 4600 4050
Connection ~ 4800 4050
Wire Wire Line
	3500 2450 5100 2450
Connection ~ 3500 4050
Connection ~ 4700 2450
Connection ~ 4900 2450
Wire Wire Line
	3500 2900 4600 2900
Connection ~ 3500 2900
Wire Wire Line
	3500 4750 4600 4750
Connection ~ 3500 4750
Wire Wire Line
	3700 6900 3700 1200
Wire Wire Line
	3700 6100 5850 6100
Wire Wire Line
	5850 6100 5850 6200
Wire Wire Line
	4350 6100 4350 6200
Connection ~ 4350 6100
Wire Wire Line
	3700 3500 2950 3500
Connection ~ 3700 6100
Wire Wire Line
	2950 4800 3700 4800
Connection ~ 3700 4800
Wire Wire Line
	3700 1200 4250 1200
Wire Wire Line
	4250 1200 4250 1250
Connection ~ 3700 3500
Wire Wire Line
	5200 5450 5200 6100
Connection ~ 5200 6100
Wire Wire Line
	3050 6800 3050 6900
Connection ~ 3050 6900
Wire Wire Line
	5200 3600 5550 3600
Wire Wire Line
	5550 3600 5550 4300
Wire Wire Line
	5550 4300 5300 4300
Wire Wire Line
	5300 4300 5300 6100
Connection ~ 5300 6100
NoConn ~ 4050 1250
NoConn ~ 4150 1250
NoConn ~ 4650 1250
NoConn ~ 4950 1250
NoConn ~ 5350 1250
NoConn ~ 5450 1250
NoConn ~ 5650 1250
NoConn ~ 5250 1750
NoConn ~ 4850 1750
NoConn ~ 4450 1750
NoConn ~ 4050 1750
NoConn ~ 5350 1750
NoConn ~ 5750 1750
NoConn ~ 5850 1750
NoConn ~ 5950 1750
Wire Wire Line
	2300 6250 2300 7100
Connection ~ 2300 6900
$Comp
L PWR_FLAG #3V01
U 1 1 56BE570D
P 1900 5850
F 0 "#3V01" H 1900 5945 50  0001 C CNN
F 1 "PWR_FLAG" H 1850 6050 50  0000 C CNN
F 2 "" H 1900 5850 50  0000 C CNN
F 3 "" H 1900 5850 50  0000 C CNN
	1    1900 5850
	1    0    0    -1  
$EndComp
$Comp
L PWR_FLAG #GND02
U 1 1 56BE5BAA
P 2300 7100
F 0 "#GND02" H 2300 7195 50  0001 C CNN
F 1 "PWR_FLAG" H 2300 7280 50  0000 C CNN
F 2 "" H 2300 7100 50  0000 C CNN
F 3 "" H 2300 7100 50  0000 C CNN
	1    2300 7100
	-1   0    0    1   
$EndComp
$EndSCHEMATC
