(export (version D)
  (design
    (source /home/mbahbejo/workspace/electronics/LineCounter/LineCounter-Button/LineCounter-Button.sch)
    (date "Sen 15 Peb 2016 09:05:50  WIB")
    (tool "Eeschema 4.0.1-4.201602090852+6195~38~ubuntu14.04.1-stable")
    (sheet (number 1) (name /) (tstamps /)
      (title_block
        (title)
        (company)
        (rev)
        (date)
        (source LineCounter-Button.sch)
        (comment (number 1) (value ""))
        (comment (number 2) (value ""))
        (comment (number 3) (value ""))
        (comment (number 4) (value "")))))
  (components
    (comp (ref INOUT1)
      (value INOUT)
      (footprint Pin_Headers:Pin_Header_Angled_1x04)
      (libsource (lib conn) (part CONN_01X04))
      (sheetpath (names /) (tstamps /))
      (tstamp 566A6A55))
    (comp (ref SW1)
      (value SW1)
      (footprint mdn:SW_PUSH-12mm)
      (libsource (lib conn) (part CONN_02X02))
      (sheetpath (names /) (tstamps /))
      (tstamp 566A6C4E))
    (comp (ref R2)
      (value 220)
      (footprint Resistors_SMD:R_0805_HandSoldering)
      (libsource (lib device) (part R))
      (sheetpath (names /) (tstamps /))
      (tstamp 566A6D1D))
    (comp (ref D1)
      (value D1)
      (footprint Diodes_SMD:MiniMELF_Handsoldering)
      (libsource (lib device) (part D))
      (sheetpath (names /) (tstamps /))
      (tstamp 5684884B))
    (comp (ref OUT1)
      (value OUT)
      (footprint Pin_Headers:Pin_Header_Angled_1x03)
      (libsource (lib conn) (part CONN_01X03))
      (sheetpath (names /) (tstamps /))
      (tstamp 56BDBA28))
    (comp (ref D2)
      (value GREEN)
      (footprint LEDs:LED_0805)
      (libsource (lib device) (part LED))
      (sheetpath (names /) (tstamps /))
      (tstamp 56C1318B)))
  (libparts
    (libpart (lib conn) (part CONN_01X03)
      (description "Connector 01x03")
      (footprints
        (fp Pin_Header_Straight_1X03)
        (fp Pin_Header_Angled_1X03)
        (fp Socket_Strip_Straight_1X03)
        (fp Socket_Strip_Angled_1X03))
      (fields
        (field (name Reference) P)
        (field (name Value) CONN_01X03))
      (pins
        (pin (num 1) (name P1) (type passive))
        (pin (num 2) (name P2) (type passive))
        (pin (num 3) (name P3) (type passive))))
    (libpart (lib conn) (part CONN_01X04)
      (description "Connector 01x04")
      (footprints
        (fp Pin_Header_Straight_1X04)
        (fp Pin_Header_Angled_1X04)
        (fp Socket_Strip_Straight_1X04)
        (fp Socket_Strip_Angled_1X04))
      (fields
        (field (name Reference) P)
        (field (name Value) CONN_01X04))
      (pins
        (pin (num 1) (name P1) (type passive))
        (pin (num 2) (name P2) (type passive))
        (pin (num 3) (name P3) (type passive))
        (pin (num 4) (name P4) (type passive))))
    (libpart (lib conn) (part CONN_02X02)
      (description "Connector 02x02")
      (footprints
        (fp Pin_Header_Straight_2X02)
        (fp Pin_Header_Angled_2X02)
        (fp Socket_Strip_Straight_2X02)
        (fp Socket_Strip_Angled_2X02))
      (fields
        (field (name Reference) P)
        (field (name Value) CONN_02X02))
      (pins
        (pin (num 1) (name P1) (type passive))
        (pin (num 2) (name P2) (type passive))
        (pin (num 3) (name P3) (type passive))
        (pin (num 4) (name P4) (type passive))))
    (libpart (lib device) (part D)
      (description Diode)
      (footprints
        (fp Diode_*)
        (fp D-Pak_TO252AA)
        (fp *SingleDiode)
        (fp *_Diode_*)
        (fp *SingleDiode*))
      (fields
        (field (name Reference) D)
        (field (name Value) D))
      (pins
        (pin (num 1) (name K) (type passive))
        (pin (num 2) (name A) (type passive))))
    (libpart (lib device) (part LED)
      (footprints
        (fp LED-3MM)
        (fp LED-5MM)
        (fp LED-10MM)
        (fp LED-0603)
        (fp LED-0805)
        (fp LED-1206)
        (fp LEDV))
      (fields
        (field (name Reference) D)
        (field (name Value) LED))
      (pins
        (pin (num 1) (name K) (type passive))
        (pin (num 2) (name A) (type passive))))
    (libpart (lib device) (part R)
      (description Resistor)
      (footprints
        (fp R_*)
        (fp Resistor_*))
      (fields
        (field (name Reference) R)
        (field (name Value) R))
      (pins
        (pin (num 1) (name ~) (type passive))
        (pin (num 2) (name ~) (type passive)))))
  (libraries
    (library (logical device)
      (uri /usr/share/kicad/library/device.lib))
    (library (logical conn)
      (uri /usr/share/kicad/library/conn.lib)))
  (nets
    (net (code 1) (name "Net-(D1-Pad1)")
      (node (ref R2) (pin 1))
      (node (ref D1) (pin 1))
      (node (ref OUT1) (pin 1)))
    (net (code 2) (name "Net-(INOUT1-Pad2)")
      (node (ref SW1) (pin 3))
      (node (ref INOUT1) (pin 2)))
    (net (code 3) (name "Net-(D1-Pad2)")
      (node (ref D1) (pin 2))
      (node (ref INOUT1) (pin 1)))
    (net (code 4) (name "Net-(D2-Pad1)")
      (node (ref OUT1) (pin 3))
      (node (ref SW1) (pin 1))
      (node (ref INOUT1) (pin 4))
      (node (ref D2) (pin 1)))
    (net (code 5) (name "Net-(SW1-Pad2)")
      (node (ref SW1) (pin 2)))
    (net (code 6) (name "Net-(INOUT1-Pad3)")
      (node (ref OUT1) (pin 2))
      (node (ref INOUT1) (pin 3)))
    (net (code 7) (name "Net-(SW1-Pad4)")
      (node (ref SW1) (pin 4)))
    (net (code 8) (name "Net-(D2-Pad2)")
      (node (ref R2) (pin 2))
      (node (ref D2) (pin 2)))))